{
    "EveCategory": [
        {
            "id": 40,
            "name": "Sovereignty Structures",
            "published": true
        },
        {
            "id": 46,
            "name": "Orbitals",
            "published": true
        },
        {
            "id": 65,
            "name": "Structure",
            "published": true
        }
    ],
    "EveConstellation": [
        {
            "eve_region_id": 10000002,
            "id": 20000020,
            "name": "Kimotoro",
            "position_x": -1.3499640046818544e+17,
            "position_y": 6.499945263229326e+16,
            "position_z": 1.0332561731752134e+17
        },
        {
            "eve_region_id": 10000014,
            "id": 20000169,
            "name": "UX3-N2",
            "position_x": -8.144235531686658e+16,
            "position_y": 8631923480121213.0,
            "position_z": -2.142002604277861e+17
        },
        {
            "eve_region_id": 10000064,
            "id": 20000729,
            "name": "Jeon",
            "position_x": -2.0690763482714282e+17,
            "position_y": 4.82908790696792e+16,
            "position_z": 7.960999000649318e+16
        },
        {
            "eve_region_id": 10000069,
            "id": 20000785,
            "name": "Ishaga",
            "position_x": -2.2268706803473363e+17,
            "position_y": 1.0836835134649451e+17,
            "position_z": 1.3602959608230848e+17
        },
        {
            "eve_region_id": 11000014,
            "id": 21000141,
            "name": "C-C00141",
            "position_x": 7.893287292990094e+18,
            "position_y": 1.816682854515408e+16,
            "position_z": -9.290998634713e+18
        }
    ],
    "EveGroup": [
        {
            "eve_category_id": 40,
            "id": 1003,
            "name": "Territorial Claim Unit",
            "published": true
        },
        {
            "eve_category_id": 40,
            "id": 1012,
            "name": "Sovereignty Hub",
            "published": true
        },
        {
            "eve_category_id": 46,
            "id": 1025,
            "name": "Orbital Infrastructure",
            "published": false
        },
        {
            "eve_category_id": 65,
            "id": 1404,
            "name": "Engineering Complex",
            "published": true
        },
        {
            "eve_category_id": 65,
            "id": 1405,
            "name": "Laboratory",
            "published": false
        },
        {
            "eve_category_id": 65,
            "id": 1406,
            "name": "Refinery",
            "published": true
        },
        {
            "eve_category_id": 65,
            "id": 1407,
            "name": "Observatory Array",
            "published": false
        },
        {
            "eve_category_id": 65,
            "id": 1408,
            "name": "Upwell Jump Gate",
            "published": true
        },
        {
            "eve_category_id": 65,
            "id": 1409,
            "name": "Administration Hub",
            "published": false
        },
        {
            "eve_category_id": 65,
            "id": 1410,
            "name": "Advertisement Center",
            "published": false
        },
        {
            "eve_category_id": 65,
            "id": 1657,
            "name": "Citadel",
            "published": true
        },
        {
            "eve_category_id": 65,
            "id": 1876,
            "name": "\u2666 Engineering Complex",
            "published": false
        },
        {
            "eve_category_id": 65,
            "id": 1924,
            "name": "\u2666 Stronghold",
            "published": false
        },
        {
            "eve_category_id": 65,
            "id": 2015,
            "name": "Upwell Monument",
            "published": false
        },
        {
            "eve_category_id": 65,
            "id": 2016,
            "name": "Upwell Cyno Jammer",
            "published": true
        },
        {
            "eve_category_id": 65,
            "id": 2017,
            "name": "Upwell Cyno Beacon",
            "published": true
        },
        {
            "eve_category_id": 65,
            "id": 4644,
            "name": "Pirate Forward Operating Base",
            "published": false
        },
        {
            "eve_category_id": 46,
            "id": 4736,
            "name": "Skyhook",
            "published": true
        },
        {
            "eve_category_id": 65,
            "id": 4744,
            "name": "Upwell Moon Drill",
            "published": true
        }
    ],
    "EveRegion": [
        {
            "description": "\"The greater the State becomes, the greater humanity under it flourishes.\"",
            "id": 10000002,
            "name": "The Forge"
        },
        {
            "description": "Catch has long been a strategically important region. During the initial expansion into the rim territories, it linked the Khanid Kingdom, Sansha's Nation and the Angel Cartel to one another, and through its connections to Providence was given considerable status as the \"Southern Gateway\" by the Amarr Empire. Unlike regions such as Pure Blind, however, its importance did not fade with the dawn of the capsuleer era, as its branching links east and west ensured continued relevance. As a consequence it has earned itself a bloody reputation - some say the very stars reverberate with the dying breaths of the countless lost souls.",
            "id": 10000014,
            "name": "Catch"
        },
        {
            "description": "\"The Federation is not a defined region of space, of planets, of mountains, rivers, or woods. It is a vision.\"",
            "id": 10000064,
            "name": "Essence"
        },
        {
            "description": "For centuries, this volume of space remained inexplicably impenetrable to investigation. It possesses no apparent mass or dimension, but the abrupt disappearance of every expedition into the zone made it an effective bulwark against flanking attacks during the first Gallente-Caldari war, and the subsequent uneasy peace.<br><br>Several decades ago, a coalition of like-minded Caldari megacorps discovered ways to traverse Black Rise safely, and began a secret programme of colonization. The start of the Empyrean War forced them to show their hand, and the region soon became a key front in the conflict between Caldari and Gallente forces.<br><br>Today the region remains somewhat underdeveloped, but rich in raw materials. The poorly-understood phenomena that still manifest can make life awkward, but fluid router networks and jump travel permit unrestricted travel and communications. Of the many early expeditions, though, no trace has yet been found.",
            "id": 10000069,
            "name": "Black Rise"
        },
        {
            "description": "",
            "id": 11000014,
            "name": "C-R00014"
        }
    ],
    "EveSolarSystem": [
        {
            "enabled_sections": 0,
            "eve_constellation_id": 20000020,
            "eve_star_id": null,
            "id": 30000142,
            "name": "Jita",
            "position_x": -1.29064861735e+17,
            "position_y": 6.075530691e+16,
            "position_z": 1.1746922706e+17,
            "security_status": 0.9459131360054016
        },
        {
            "enabled_sections": 0,
            "eve_constellation_id": 20000169,
            "eve_star_id": null,
            "id": 30001161,
            "name": "HED-GP",
            "position_x": -9.54136975600012e+16,
            "position_y": 1.9654254337720636e+16,
            "position_z": -2.0691536685399747e+17,
            "security_status": -0.14632222056388855
        },
        {
            "enabled_sections": 0,
            "eve_constellation_id": 20000729,
            "eve_star_id": null,
            "id": 30004984,
            "name": "Abune",
            "position_x": -2.1126590104115347e+17,
            "position_y": 5.580652849031512e+16,
            "position_z": 8.141639674703722e+16,
            "security_status": 0.28563404083251953
        },
        {
            "enabled_sections": 0,
            "eve_constellation_id": 20000785,
            "eve_star_id": null,
            "id": 30045339,
            "name": "Enaluri",
            "position_x": -2.2787517331394458e+17,
            "position_y": 1.0468838569953179e+17,
            "position_z": 1.2027941769265027e+17,
            "security_status": 0.3277980387210846
        },
        {
            "enabled_sections": 0,
            "eve_constellation_id": 21000141,
            "eve_star_id": null,
            "id": 31001303,
            "name": "J151645",
            "position_x": 7.889821783918055e+18,
            "position_y": 8073449579948044.0,
            "position_z": -9.287839501992464e+18,
            "security_status": -0.9900000095367432
        }
    ],
    "EveType": [
        {
            "capacity": 35000.0,
            "description": "Orbital Customs Offices are the primary points of contact between planetary and interplanetary economies. These facilities, resembling massive hangars in space, provide high-volume, high-frequency cargo transport services between a planet's surface and orbit.\r\n\r\n<i>Excerpt from the Amarr Prime Customs Agency regulations, section 17, subsection 4, paragraph 8:\r\n\r\nThe following items may only be imported or exported with the express prior approval of the Imperial Underscrivener for Commercial Affairs:\r\n\r\nNarcotic substances; handheld firearms; slaver hounds (except as personal property); Mindflood; live insects; ungulates; Class 1 refrigerants and aerosols; forced laborers/personal slaves (or other sapient livestock); animal germ-plasm; biomass of human origin; xenobiotics; walnuts.</i>",
            "enabled_sections": 0,
            "eve_graphic_id": null,
            "eve_group_id": 1025,
            "eve_market_group_id": null,
            "icon_id": null,
            "id": 2233,
            "mass": 5000000000.0,
            "name": "Customs Office",
            "packaged_volume": 100000000.0,
            "portion_size": 1,
            "published": false,
            "radius": 8000.0,
            "volume": 100000000.0
        },
        {
            "capacity": 0.0,
            "description": "Prior to YC126, TCUs used to be the de facto means for alliances to claim null security space as their own. With the introduction of sovereignty hubs by the Upwell Consortium, they have become obsolete and their further deployment has been disabled.",
            "enabled_sections": 0,
            "eve_graphic_id": null,
            "eve_group_id": 1003,
            "eve_market_group_id": null,
            "icon_id": null,
            "id": 32226,
            "mass": 1000000.0,
            "name": "Defunct Territorial Claim Unit",
            "packaged_volume": 5000.0,
            "portion_size": 1,
            "published": true,
            "radius": 1602.0,
            "volume": 5000.0
        },
        {
            "capacity": 10000.0,
            "description": "Developed by the Upwell Consortium, the sovereignty hub is the pinnacle of null security space management technology. With its modular upgrade infrastructure and energy capture capabilities, a sovereignty hub generates ample power to establish a claim and begin moving necessary workforce. Additionally, installing <a href=showinfo:81080>orbital skyhooks</a> on nearby planets allows a sovereignty hub to maintain further upgrades that can satisfy a variety of diverse needs.\r\n\r\nTo initiate a claim on a star system, deploy the sovereignty hub near a star and target it with an Entosis Link until your alliance gains full control. Only members of a valid capsuleer alliance can deploy and take control of a sovereignty hub. One hub is the maximum allowed in any star system, and they cannot be deployed in systems under non-capsuleer sovereignty or in wormhole space.",
            "enabled_sections": 0,
            "eve_graphic_id": null,
            "eve_group_id": 1012,
            "eve_market_group_id": null,
            "icon_id": 26062,
            "id": 32458,
            "mass": 1000000.0,
            "name": "Sovereignty Hub",
            "packaged_volume": 60000.0,
            "portion_size": 1,
            "published": true,
            "radius": 45000.0,
            "volume": 60000.0
        },
        {
            "capacity": 0.0,
            "description": "Named after Tyma Raitaru, who pioneered the development of modern day missile technology, the Raitaru Engineering Complex is a medium-sized structure from the Upwell Consortium and is specialized in manufacturing and research operations.\r\n\r\nThe Raitaru is the entry-level Engineering Complex in the Upwell Consortium\u2019s new line of structures, and is able to use Upwell's Standup Service modules, allowing flexibility and customization of its functions. This dedicated industrial structure also provides access to Upwell\u2019s M-Set line of rigs designed to improve productivity and optimization of various aspects of manufacturing and research.\r\n\r\nThe Raitaru provides tethering technology and has docking capabilities for subcapital ships and freighters.",
            "enabled_sections": 0,
            "eve_graphic_id": null,
            "eve_group_id": 1404,
            "eve_market_group_id": null,
            "icon_id": null,
            "id": 35825,
            "mass": 3000000000.0,
            "name": "Raitaru",
            "packaged_volume": 8000.0,
            "portion_size": 1,
            "published": true,
            "radius": 45000.0,
            "volume": 8000.0
        },
        {
            "capacity": 0.0,
            "description": "Named after Li Azbel, a Gallente scientist who pioneered the first breakthroughs in faster than light communications, the Azbel Engineering Complex is a large-sized structure from the Upwell Consortium and is specialized in manufacturing and research operations. \r\n\r\nThe Azbel Engineering Complex fits into the industrial major-player spot in the Upwell Consortium\u2019s new line of structures, and is able to use Upwell's Standup Service modules, allowing flexibility and customization of its functions. This dedicated industrial structure also provides access to Upwell\u2019s L-Set line of rigs designed to improve productivity and optimization of various aspects of manufacturing and research.\r\n\r\nDue to its large size this engineering complex can accommodate construction of capital ships using the Standup Capital Shipyard I Service Module.\r\n\r\nThe Azbel provides tethering technology and has docking capabilities for subcapital ships and freighters.",
            "enabled_sections": 0,
            "eve_graphic_id": null,
            "eve_group_id": 1404,
            "eve_market_group_id": null,
            "icon_id": null,
            "id": 35826,
            "mass": 10000000000.0,
            "name": "Azbel",
            "packaged_volume": 80000.0,
            "portion_size": 1,
            "published": true,
            "radius": 85000.0,
            "volume": 80000.0
        },
        {
            "capacity": 0.0,
            "description": "Named after one of the co-creators of the first Caldari warp drive, the Sotiyo-Urbaata Drive, the Sotiyo serves as a mega-scale manufacturing and assembly site for everything from subcapital ships and modules, up to supercapital class hulls. \r\n\r\nThe Sotiyo is the Engineering Complex fit for megacorporations in the Upwell Consortium\u2019s new line of structures, and is able to use Upwell's Standup Service modules, allowing flexibility and customization of its functions. This dedicated industrial structure also provides access to Upwell\u2019s XL-Set line of rigs designed to improve productivity and optimization of various aspects of manufacturing and research.\r\n\r\nDue to its extra-large size this engineering complex can accommodate construction of supercapital ships using the Standup Supercapital Shipyard I Service Module.\r\n\r\nThe Sotiyo provides tethering technology and has docking capabilities for capital-size ships and below.\r\n\r\nOn June 14th YC125 CONCORD updated the capsuleer structure regulations to disallow the anchoring of any new XL structures in highsec space. XL structures that were anchored before this date will not be affected by this change unless they are unanchored.",
            "enabled_sections": 0,
            "eve_graphic_id": null,
            "eve_group_id": 1404,
            "eve_market_group_id": null,
            "icon_id": null,
            "id": 35827,
            "mass": 50000000000.0,
            "name": "Sotiyo",
            "packaged_volume": 800000.0,
            "portion_size": 1,
            "published": true,
            "radius": 150000.0,
            "volume": 800000.0
        },
        {
            "capacity": 0.0,
            "description": "New medium laboratory structure.",
            "enabled_sections": 0,
            "eve_graphic_id": null,
            "eve_group_id": 1405,
            "eve_market_group_id": null,
            "icon_id": null,
            "id": 35828,
            "mass": 500.0,
            "name": "Medium Laboratory",
            "packaged_volume": 4000.0,
            "portion_size": 1,
            "published": false,
            "radius": 1.0,
            "volume": 4000.0
        },
        {
            "capacity": 0.0,
            "description": "New large laboratory structure.",
            "enabled_sections": 0,
            "eve_graphic_id": null,
            "eve_group_id": 1405,
            "eve_market_group_id": null,
            "icon_id": null,
            "id": 35829,
            "mass": 500.0,
            "name": "Large Laboratory",
            "packaged_volume": 4000.0,
            "portion_size": 1,
            "published": false,
            "radius": 1.0,
            "volume": 4000.0
        },
        {
            "capacity": 0.0,
            "description": "New X-large laboratory structure.",
            "enabled_sections": 0,
            "eve_graphic_id": null,
            "eve_group_id": 1405,
            "eve_market_group_id": null,
            "icon_id": null,
            "id": 35830,
            "mass": 500.0,
            "name": "X-Large Laboratory",
            "packaged_volume": 4000.0,
            "portion_size": 1,
            "published": false,
            "radius": 1.0,
            "volume": 4000.0
        },
        {
            "capacity": 0.0,
            "description": "As the entry-level product in the Upwell Consortium's Citadel range of space stations, the Astrahus has been designed as an economical option for medium-scale operations in space, such as serving as a base of operations for a small- to medium-sized corporation, or as an outpost for larger corporations or even small alliances.\r\n\r\nThe Astrahus has been built with new spaceship tethering technology as standard, and will happily accommodate ships under capital size, and even freighter-class hulls, in its internal docking bays. The Astrahus can be configured using Upwell's Standup brand service and structure modules so as to serve the specific needs of the structure operator. Further adjustment of the hardware of the Astrahus can be achieved by installed Standup M-Set rigs to optimize the specific role of the citadel.",
            "enabled_sections": 0,
            "eve_graphic_id": null,
            "eve_group_id": 1657,
            "eve_market_group_id": null,
            "icon_id": null,
            "id": 35832,
            "mass": 3000000000.0,
            "name": "Astrahus",
            "packaged_volume": 8000.0,
            "portion_size": 1,
            "published": true,
            "radius": 45000.0,
            "volume": 8000.0
        },
        {
            "capacity": 0.0,
            "description": "Conceived as a good balance of capability and investment in the Upwell Consortium's Citadel range of space stations, the Fortizar has been designed for large-scale operations in space, such as providing a well-equipped home for large corporations and small alliances, or as a border or trade post for larger alliances.\r\n\r\nThe Fortizar has been built with new spaceship tethering technology as standard, and will readily accommodate most ships, including freighters and even capital ships, in its internal docking bays. While the docks are unable to service 'supercapital' level vessels, the defensive capabilities of the Fortizar are considerably enhanced in lower security star systems with the ability to mount area effect weapons. The Fortizar can be configured using Upwell's Standup brand service and structure modules so as to serve the specific needs of the structure operator. Further adjustment of the hardware of the Fortizar can be achieved by installed Standup L-Set rigs to optimize the specific role of the citadel.",
            "enabled_sections": 0,
            "eve_graphic_id": null,
            "eve_group_id": 1657,
            "eve_market_group_id": null,
            "icon_id": null,
            "id": 35833,
            "mass": 10000000000.0,
            "name": "Fortizar",
            "packaged_volume": 80000.0,
            "portion_size": 1,
            "published": true,
            "radius": 85000.0,
            "volume": 80000.0
        },
        {
            "capacity": 0.0,
            "description": "Envisaged as the flagship product in the Upwell Consortium's Citadel range of space stations, the Keepstar has been designed for the most important and largest-scale of operations in space, such as providing a fully-featured home for large alliances, and even coalitions, or as a key element in the fortification of large territorial empires.\r\n\r\nThe Keepstar has been built with new spaceship tethering technology as standard, and it will accommodate all size classes of ship, including 'supercapital' vessels, in its internal docking bays. The defensive capabilities of the Keepstar are formidable and are highly enhanced in lower security star systems with the ability to mount area effect and 'doomsday' weapons. The Keepstar can be configured using Upwell's Standup brand service and structure modules so as to serve the specific needs of the structure operator. Further adjustment of the hardware of the Keepstar can be achieved by installed Standup XL-Set rigs to optimize the specific role of the citadel.\r\n\r\nOn June 14th YC125 CONCORD updated the capsuleer structure regulations to disallow the anchoring of any new XL structures in highsec space. XL structures that were anchored before this date will not be affected by this change unless they are unanchored.",
            "enabled_sections": 0,
            "eve_graphic_id": null,
            "eve_group_id": 1657,
            "eve_market_group_id": null,
            "icon_id": null,
            "id": 35834,
            "mass": 50000000000.0,
            "name": "Keepstar",
            "packaged_volume": 800000.0,
            "portion_size": 1,
            "published": true,
            "radius": 150000.0,
            "volume": 800000.0
        },
        {
            "capacity": 0.0,
            "description": "\u201cSeen thousands of auto miners come and go. Like a bucket quarry in space. Easy to get used to. New tech's more like slicing out a volcano and bringing the whole thing up. Don\u2019t think I\u2019ll ever get used to it.\u201d <i>\u2013 Ramon Fulcan, veteran moon-mining engineer</i>\r\n\r\nThe Athanor Refinery is a medium-sized structure from the Upwell Consortium and specialized for moon-mining and reaction-based industrial operations. The Athanor is the standard refinery in the Upwell Consortium\u2019s line of industrial structures, and is able to use Upwell's Standup Service modules, allowing flexibility and customization of its functions. \r\n\r\nThis dedicated extraction and refining structure also provides access to Upwell\u2019s M-Set line of rigs designed to improve productivity and optimization of various aspects of chemical reaction and moon-mining operations. The Athanor has docking facilities for subcapital ships and freighters.\r\n\r\nThe Moon Drill Service Module can only be installed if the Refinery is deployed on the eligible moon mining position.",
            "enabled_sections": 0,
            "eve_graphic_id": null,
            "eve_group_id": 1406,
            "eve_market_group_id": null,
            "icon_id": null,
            "id": 35835,
            "mass": 3000000000.0,
            "name": "Athanor",
            "packaged_volume": 8000.0,
            "portion_size": 1,
            "published": true,
            "radius": 45000.0,
            "volume": 8000.0
        },
        {
            "capacity": 0.0,
            "description": "\u201cOh yeah, I was at C0T-77 when the fusion reactor went critical and blew the side out of the Crown Seven mineworks. We got more promethium out of the debris field in a day than in a month of drilling. I guess it got someone to thinking.\u201d <i>\u2013 Ramon Fulcan, veteran moon-mining engineer</i>\r\n\r\nThe Tatara Refinery is a large-sized structure from the Upwell Consortium and specialized for moon-mining and reaction-based industrial operations. The Tatara is the heavy-duty, extended operations refinery in the Upwell Consortium\u2019s line of industrial structures, and is able to use Upwell's Standup Service modules, allowing flexibility and customization of its functions. \r\n\r\nThis dedicated extraction and refining structure also provides access to Upwell\u2019s L-Set line of rigs designed to improve productivity and optimization of various aspects of chemical reaction and moon-mining operations. The Tatara has docking facilities for subcapital ships, freighters, and capital industrial ships.\r\n\r\nThe Moon Drill Service Module can only be installed if the Refinery is deployed on the eligible moon mining position.",
            "enabled_sections": 0,
            "eve_graphic_id": null,
            "eve_group_id": 1406,
            "eve_market_group_id": null,
            "icon_id": null,
            "id": 35836,
            "mass": 10000000000.0,
            "name": "Tatara",
            "packaged_volume": 80000.0,
            "portion_size": 1,
            "published": true,
            "radius": 45000.0,
            "volume": 80000.0
        },
        {
            "capacity": 0.0,
            "description": "Saminer T-NNJZ prototype",
            "enabled_sections": 0,
            "eve_graphic_id": null,
            "eve_group_id": 1408,
            "eve_market_group_id": null,
            "icon_id": null,
            "id": 35837,
            "mass": 500.0,
            "name": "Custom gate 1",
            "packaged_volume": 4000.0,
            "portion_size": 1,
            "published": false,
            "radius": 1.0,
            "volume": 4000.0
        },
        {
            "capacity": 0.0,
            "description": "New medium observatory array structures.",
            "enabled_sections": 0,
            "eve_graphic_id": null,
            "eve_group_id": 1407,
            "eve_market_group_id": null,
            "icon_id": null,
            "id": 35838,
            "mass": 500.0,
            "name": "Medium Observatory Array",
            "packaged_volume": 4000.0,
            "portion_size": 1,
            "published": false,
            "radius": 1.0,
            "volume": 4000.0
        },
        {
            "capacity": 0.0,
            "description": "New large observatory array structure.",
            "enabled_sections": 0,
            "eve_graphic_id": null,
            "eve_group_id": 1407,
            "eve_market_group_id": null,
            "icon_id": null,
            "id": 35839,
            "mass": 500.0,
            "name": "Large Observatory Array",
            "packaged_volume": 4000.0,
            "portion_size": 1,
            "published": false,
            "radius": 1.0,
            "volume": 4000.0
        },
        {
            "capacity": 0.0,
            "description": "Designed by the Upwell Consortium to function as a successor and improvement over starbase cynosural generator arrays, the Pharolux Cyno Beacon is a key element of their new Fast Logistical EXpansion (FLEX) structures product line. \n\nThe Pharolux provides a stationary cynosural beacon on to which jump-capable vessels can lock their drives and make FTL jumps, safe in the knowledge of a stable connection in a presumably secure location. The Upwell Consortium has made certain improvements but the base technology used in the Pharolux is essentially the tried and true cynosural beacon device.\n\nEach Pharolux Cyno Beacon structure is automatically equipped with one <a href=showinfo:35912>Standup Cynosural Field Generator I</a> service module. This service module may only be onlined in a system that contains a sovereignty hub with the <a href=showinfo:2008>Cynosural Navigation</a> upgrade active.\n\nMay not be deployed within 200km of another Upwell Structure, or 1000km of Stargates, Stations, or Starbases. A maximum of one Cyno Beacon structure may be deployed per system.",
            "enabled_sections": 0,
            "eve_graphic_id": null,
            "eve_group_id": 2017,
            "eve_market_group_id": null,
            "icon_id": null,
            "id": 35840,
            "mass": 3000000000.0,
            "name": "Pharolux Cyno Beacon",
            "packaged_volume": 4000.0,
            "portion_size": 1,
            "published": true,
            "radius": 7000.0,
            "volume": 4000.0
        },
        {
            "capacity": 0.0,
            "description": "Designed by the Upwell Consortium to function as the successor and improvement over starbase jump bridges, the Ansiblex Jump Gate is the flagship of their new Fast Logistical EXpansion (FLEX) structures product line.\n\nThe Ansiblex enables point-to-point FTL travel even for ships that lack their own jump drives, and a matched pair of gates provides a transport connection between two star systems within its operational range, using stabilized spatiotemporal tunneling. The Ansiblex makes a large number of improvements over the older jump bridge portal devices, and incorporates some elements of Triglavian Collective space-time conduit technology in its workings.\n\nEach Ansiblex Jump Gate structure is automatically equipped with one <a href=showinfo:35913>Standup Conduit Generator I</a> service module. This service module may only be onlined in a system that contains a sovereignty hub with the <a href=showinfo:32422>Advanced Logistics Network</a> upgrade active.\n\nMay not be deployed within 500km of another Upwell Structure, or 1000km of Stargates, Stations, or Starbases. A maximum of one Jump Gate may be deployed per system.",
            "enabled_sections": 0,
            "eve_graphic_id": null,
            "eve_group_id": 1408,
            "eve_market_group_id": null,
            "icon_id": null,
            "id": 35841,
            "mass": 3000000000.0,
            "name": "Ansiblex Jump Gate",
            "packaged_volume": 6000.0,
            "portion_size": 1,
            "published": true,
            "radius": 13000.0,
            "volume": 6000.0
        },
        {
            "capacity": 0.0,
            "description": "New medium administration hub structure.",
            "enabled_sections": 0,
            "eve_graphic_id": null,
            "eve_group_id": 1409,
            "eve_market_group_id": null,
            "icon_id": null,
            "id": 35842,
            "mass": 500.0,
            "name": "Medium Administration Hub",
            "packaged_volume": 4000.0,
            "portion_size": 1,
            "published": false,
            "radius": 1.0,
            "volume": 4000.0
        },
        {
            "capacity": 0.0,
            "description": "New large administration hub",
            "enabled_sections": 0,
            "eve_graphic_id": null,
            "eve_group_id": 1409,
            "eve_market_group_id": null,
            "icon_id": null,
            "id": 35843,
            "mass": 500.0,
            "name": "Large Administration Hub",
            "packaged_volume": 4000.0,
            "portion_size": 1,
            "published": false,
            "radius": 1.0,
            "volume": 4000.0
        },
        {
            "capacity": 0.0,
            "description": "New x-large administration hub",
            "enabled_sections": 0,
            "eve_graphic_id": null,
            "eve_group_id": 1409,
            "eve_market_group_id": null,
            "icon_id": null,
            "id": 35844,
            "mass": 500.0,
            "name": "X-Large Administration Hub",
            "packaged_volume": 4000.0,
            "portion_size": 1,
            "published": false,
            "radius": 1.0,
            "volume": 4000.0
        },
        {
            "capacity": 0.0,
            "description": "",
            "enabled_sections": 0,
            "eve_graphic_id": null,
            "eve_group_id": 2015,
            "eve_market_group_id": null,
            "icon_id": null,
            "id": 35845,
            "mass": 500.0,
            "name": "Upwell Monument AM",
            "packaged_volume": 4000.0,
            "portion_size": 1,
            "published": false,
            "radius": 1.0,
            "volume": 4000.0
        },
        {
            "capacity": 0.0,
            "description": "",
            "enabled_sections": 0,
            "eve_graphic_id": null,
            "eve_group_id": 1407,
            "eve_market_group_id": null,
            "icon_id": null,
            "id": 37533,
            "mass": 500.0,
            "name": "X-Large Observatory Array",
            "packaged_volume": 4000.0,
            "portion_size": 1,
            "published": false,
            "radius": 1.0,
            "volume": 4000.0
        },
        {
            "capacity": 0.0,
            "description": "Designed by the Upwell Consortium to function as a successor and improvement over starbase cynosural system jammers, the Tenebrex Cyno Jammer is a vital part of their new Fast Logistical EXpansion (FLEX) structures product line.\n\nAs with established, large-scale cynosural jamming technology, the Tenebrex creates a system-wide inhibitor field which prevents cynosural generators, except covert cynosural generators, from functioning. With cynosural jamming an important element of strategic warfare, the Tenebrex incorporates certain improvements on the basic cyno jamming technology that it uses.\n\nEach Tenebrex Cyno Jammer structure is automatically equipped with one <a href=showinfo:35914>Standup Cynosural System Jammer I</a> service module. This service module may only be onlined in a system that contains a sovereignty hub with the <a href=showinfo:2001>Cynosural Suppression</a> upgrade active.\n\nMay not be deployed within 500km of another Upwell Structure, or 1000km of Stargates, Stations, or Starbases. A maximum of three Cyno Jammer structures may be deployed per system, and only one such structure may have its service module activated at any given time.",
            "enabled_sections": 0,
            "eve_graphic_id": null,
            "eve_group_id": 2016,
            "eve_market_group_id": null,
            "icon_id": null,
            "id": 37534,
            "mass": 3000000000.0,
            "name": "Tenebrex Cyno Jammer",
            "packaged_volume": 5000.0,
            "portion_size": 1,
            "published": true,
            "radius": 11000.0,
            "volume": 5000.0
        },
        {
            "capacity": 0.0,
            "description": "",
            "enabled_sections": 0,
            "eve_graphic_id": null,
            "eve_group_id": 1410,
            "eve_market_group_id": null,
            "icon_id": null,
            "id": 37535,
            "mass": 500.0,
            "name": "Upwell Simple Advertisement Center",
            "packaged_volume": 4000.0,
            "portion_size": 1,
            "published": false,
            "radius": 1.0,
            "volume": 4000.0
        },
        {
            "capacity": 0.0,
            "description": "",
            "enabled_sections": 0,
            "eve_graphic_id": null,
            "eve_group_id": 1410,
            "eve_market_group_id": null,
            "icon_id": null,
            "id": 37536,
            "mass": 500.0,
            "name": "Upwell Advanced Advertisement Center",
            "packaged_volume": 4000.0,
            "portion_size": 1,
            "published": false,
            "radius": 1.0,
            "volume": 4000.0
        },
        {
            "capacity": 0.0,
            "description": "A very special modification and enhancement of the Keepstar class entry in the Upwell Consortium's Citadel range of space stations, the Palatine Keepstar has been designed as the ultimate prestige base of operations for the pre-eminent capsuleer space empires of New Eden. The materials used to finish the Palatine Keepstar citadel, inside and out, are of highest quality and the design includes some key enhancements aimed at pushing the capabilities of this combination fortress and symbol of power to the utmost. The Palatine Keepstar is being offered under terms of a highly encrypted construction template that will limit the number that can be built and operated at any given time.\r\n\r\nLike the standard Keepstar, the Palatine Keepstar has been built with new spaceship tethering technology as standard, and it will accommodate all size classes of ship, including 'supercapital' vessels, in its internal docking bays. The defensive capabilities of the Palatine Keepstar are formidable and are highly enhanced in lower security star systems with the ability to mount area effect and 'doomsday' weapons. The Palatine Keepstar can be configured using Upwell's Standup brand service and structure modules so as to serve the specific needs of the structure operator. Further adjustment of the hardware of the Palatine Keepstar can be achieved by installed Standup XL-Set rigs to optimize the specific role of the citadel.\r\n\r\nOn June 14th YC125 CONCORD updated the capsuleer structure regulations to disallow the anchoring of any new XL structures in highsec space. XL structures that were anchored before this date will not be affected by this change unless they are unanchored.",
            "enabled_sections": 0,
            "eve_graphic_id": null,
            "eve_group_id": 1657,
            "eve_market_group_id": null,
            "icon_id": null,
            "id": 40340,
            "mass": 50000000000.0,
            "name": "Upwell Palatine Keepstar",
            "packaged_volume": 800000.0,
            "portion_size": 1,
            "published": true,
            "radius": 150000.0,
            "volume": 800000.0
        },
        {
            "capacity": 0.0,
            "description": "New Eden\u2019s major pirate groups soon realized that Upwell\u2019s Sotiyo-class Engineering Complex could be repurposed very quickly as a fortified shipyard. This idea proved particularly suitable for those pirate organizations increasing the output of their capital shipbuilding programs.\r\nSotiyo-class structures that have been converted to pirate shipyards are formidable targets that are the center of major pirate activity. They are guarded by pirate fleets and are capable of calling in additional response forces.\r\n\r\nThe capsuleer fleet that inflicts the most damage on a pirate shipyard will receive an ISK reward, with individual pilots potentially receiving up to <color=yellow>150,000,000 ISK</color> each.",
            "enabled_sections": 0,
            "eve_graphic_id": null,
            "eve_group_id": 1876,
            "eve_market_group_id": null,
            "icon_id": null,
            "id": 45006,
            "mass": 50000000000.0,
            "name": "\u2666 Sotiyo",
            "packaged_volume": 800000.0,
            "portion_size": 1,
            "published": false,
            "radius": 150000.0,
            "volume": 800000.0
        },
        {
            "capacity": 0.0,
            "description": "A high-tempo shift of gears for Guristas Pirates raiding throughout the Caldari State, and bordering empire regions of high-security space, the appearance of Guristas Pirates Strongholds represents a major challenge to core empire military and industrial operations.\r\n\r\nNotably, Guristas Pirate mining operations and patrol fleets are able to range out from their strongholds in ever greater numbers, striking in asteroid belts and against vulnerable infrastructure.\r\n\r\nCONCORD has assessed the threat of pirate strongholds as extremely serious and will reward capsuleer groups that take the lead in degrading and destroying outlaw structures of this kind.\r\n\r\nThe capsuleer fleet that inflicts the most damage on a pirate stronghold will receive up to <color=yellow>800,000,000 ISK</color>, with individual pilots potentially receiving up to <color=yellow>30,000,000 ISK</color> each.",
            "enabled_sections": 0,
            "eve_graphic_id": null,
            "eve_group_id": 1924,
            "eve_market_group_id": null,
            "icon_id": null,
            "id": 46363,
            "mass": 3000000000.0,
            "name": "Guristas Pirates Stronghold",
            "packaged_volume": 8000.0,
            "portion_size": 1,
            "published": false,
            "radius": 25000.0,
            "volume": 8000.0
        },
        {
            "capacity": 0.0,
            "description": "Representing an escalation in Blood Raider Covenant activity across the core territories of the Amarr Empire, and neighboring regions of high-security space, the establishment of Blood Raiders Strongholds poses a severe threat to core empire interests.\r\n\r\nIn particular, Blood Raider mining operations and patrol fleets are able to range out from such strongholds in ever greater numbers, striking in asteroid belts and against vulnerable infrastructure.\r\n\r\nCONCORD has assessed the threat of pirate strongholds as extremely serious and will reward capsuleer groups that take the lead in degrading and destroying outlaw structures of this kind.\r\n\r\nThe capsuleer fleet that inflicts the most damage on a pirate stronghold will receive up to <color=yellow>800,000,000 ISK</color>, with individual pilots potentially receiving up to <color=yellow>30,000,000 ISK</color> each.",
            "enabled_sections": 0,
            "eve_graphic_id": null,
            "eve_group_id": 1924,
            "eve_market_group_id": null,
            "icon_id": null,
            "id": 46364,
            "mass": 3000000000.0,
            "name": "Blood Raiders Stronghold",
            "packaged_volume": 8000.0,
            "portion_size": 1,
            "published": false,
            "radius": 25000.0,
            "volume": 8000.0
        },
        {
            "capacity": 0.0,
            "description": "The 'Moreau'-class upgraded Fortizar is a special edition structure released in limited numbers to capsuleers by the Upwell Consortium as part of their outpost migration project of YC120. During the outpost migration event all Conquerable Stations were converted into these new faction Fortizars, and after that event no more copies of this structure or its blueprints have been made available to capsuleers.\r\n\r\nThe 'Moreau' Fortizar enjoys all of the capabilities of a standard Fortizar citadel alongside a large variety of other enhancements. It enjoys increases to most key stats, as well as extra bonuses to industry, fuel consumption, and refining. It is named for S\u00e9bastien Moreau, the visionary leader who formed the \"Immensea\" organization that built the conquerable stations throughout most nullsec regions.\r\n\r\nThe Fortizar has been built with new spaceship tethering technology as standard, and will readily accommodate most ships, including freighters and even capital ships, in its internal docking bays. While the docks are unable to service 'supercapital' level vessels, the defensive capabilities of the Fortizar are considerably enhanced in lower security star systems with the ability to mount area effect weapons. The Fortizar can be configured using Upwell's Standup brand service and structure modules so as to serve the specific needs of the structure operator. Further adjustment of the hardware of the Fortizar can be achieved by installed Standup L-Set rigs to optimize the specific role of the citadel.",
            "enabled_sections": 0,
            "eve_graphic_id": null,
            "eve_group_id": 1657,
            "eve_market_group_id": null,
            "icon_id": null,
            "id": 47512,
            "mass": 10000000000.0,
            "name": "'Moreau' Fortizar",
            "packaged_volume": 80000.0,
            "portion_size": 1,
            "published": true,
            "radius": 85000.0,
            "volume": 80000.0
        },
        {
            "capacity": 0.0,
            "description": "The 'Draccous'-class upgraded Fortizar is a special edition structure released in limited numbers to capsuleers by the Upwell Consortium as part of their outpost migration project of YC120. During the outpost migration event all Amarr Manufacturing Outposts were converted into these new faction Fortizars, and after that event no more copies of this structure or its blueprints have been made available to capsuleers.\r\n\r\nThe 'Draccous' Fortizar enjoys all of the capabilities of a standard Fortizar citadel alongside reinforced armor plating and enhanced manufacturing facilities. It is named for the \"Draccous Station\" of 0OYZ-G, the first ever Amarr Manufacturing Outpost to be deployed by capsuleers.\r\n\r\nThe Fortizar has been built with new spaceship tethering technology as standard, and will readily accommodate most ships, including freighters and even capital ships, in its internal docking bays. While the docks are unable to service 'supercapital' level vessels, the defensive capabilities of the Fortizar are considerably enhanced in lower security star systems with the ability to mount area effect weapons. The Fortizar can be configured using Upwell's Standup brand service and structure modules so as to serve the specific needs of the structure operator. Further adjustment of the hardware of the Fortizar can be achieved by installed Standup L-Set rigs to optimize the specific role of the citadel.",
            "enabled_sections": 0,
            "eve_graphic_id": null,
            "eve_group_id": 1657,
            "eve_market_group_id": null,
            "icon_id": null,
            "id": 47513,
            "mass": 10000000000.0,
            "name": "'Draccous' Fortizar",
            "packaged_volume": 80000.0,
            "portion_size": 1,
            "published": true,
            "radius": 85000.0,
            "volume": 80000.0
        },
        {
            "capacity": 0.0,
            "description": "The 'Horizon'-class upgraded Fortizar is a special edition structure released in limited numbers to capsuleers by the Upwell Consortium as part of their outpost migration project of YC120. During the outpost migration event all Caldari Research Outposts were converted into these new faction Fortizars, and after that event no more copies of this structure or its blueprints have been made available to capsuleers.\r\n\r\nThe 'Horizon' Fortizar enjoys all of the capabilities of a standard Fortizar citadel alongside improved shielding and enhanced research facilities. It is named for the \"Celestial Horizon\" corporation, who were the leading pioneers in outpost construction and deployment. Celestial Horizon deployed the first Minmatar and Caldari outposts in New Eden and co-founded the Ascendant Frontier alliance which built much of the early capsuleer infrastructure in the southern regions of nullsec space.\r\n\r\nThe Fortizar has been built with new spaceship tethering technology as standard, and will readily accommodate most ships, including freighters and even capital ships, in its internal docking bays. While the docks are unable to service 'supercapital' level vessels, the defensive capabilities of the Fortizar are considerably enhanced in lower security star systems with the ability to mount area effect weapons. The Fortizar can be configured using Upwell's Standup brand service and structure modules so as to serve the specific needs of the structure operator. Further adjustment of the hardware of the Fortizar can be achieved by installed Standup L-Set rigs to optimize the specific role of the citadel.",
            "enabled_sections": 0,
            "eve_graphic_id": null,
            "eve_group_id": 1657,
            "eve_market_group_id": null,
            "icon_id": null,
            "id": 47514,
            "mass": 10000000000.0,
            "name": "'Horizon' Fortizar",
            "packaged_volume": 80000.0,
            "portion_size": 1,
            "published": true,
            "radius": 85000.0,
            "volume": 80000.0
        },
        {
            "capacity": 0.0,
            "description": "The 'Marginis'-class upgraded Fortizar is a special edition structure released in limited numbers to capsuleers by the Upwell Consortium as part of their outpost migration project of YC120. During the outpost migration event all Gallente Administrative Outposts were converted into these new faction Fortizars, and after that event no more copies of this structure or its blueprints have been made available to capsuleers.\r\n\r\nThe 'Marginis' Fortizar enjoys all of the capabilities of a standard Fortizar citadel alongside reinforced hull bulkheads and significantly optimized fuel consumption for all Upwell service modules. It is named for the \"ISS Marginis\" outpost of KDF-GY, the first ever Gallente Administrative Outpost to be deployed by capsuleers.\r\n\r\nThe Fortizar has been built with new spaceship tethering technology as standard, and will readily accommodate most ships, including freighters and even capital ships, in its internal docking bays. While the docks are unable to service 'supercapital' level vessels, the defensive capabilities of the Fortizar are considerably enhanced in lower security star systems with the ability to mount area effect weapons. The Fortizar can be configured using Upwell's Standup brand service and structure modules so as to serve the specific needs of the structure operator. Further adjustment of the hardware of the Fortizar can be achieved by installed Standup L-Set rigs to optimize the specific role of the citadel.",
            "enabled_sections": 0,
            "eve_graphic_id": null,
            "eve_group_id": 1657,
            "eve_market_group_id": null,
            "icon_id": null,
            "id": 47515,
            "mass": 10000000000.0,
            "name": "'Marginis' Fortizar",
            "packaged_volume": 80000.0,
            "portion_size": 1,
            "published": true,
            "radius": 85000.0,
            "volume": 80000.0
        },
        {
            "capacity": 0.0,
            "description": "The 'Prometheus'-class upgraded Fortizar is a special edition structure released in limited numbers to capsuleers by the Upwell Consortium as part of their outpost migration project of YC120. During the outpost migration event all Minmatar Service Outposts were converted into these new faction Fortizars, and after that event no more copies of this structure or its blueprints have been made available to capsuleers.\r\n\r\nThe 'Prometheus' Fortizar enjoys all of the capabilities of a standard Fortizar citadel alongside enhanced durability and improved reprocessing facilities. It is named for \"Prometheus Station\" of 5P-AIP, the first ever Minmatar Service Outpost to be deployed by capsuleers.\r\n\r\nThe Fortizar has been built with new spaceship tethering technology as standard, and will readily accommodate most ships, including freighters and even capital ships, in its internal docking bays. While the docks are unable to service 'supercapital' level vessels, the defensive capabilities of the Fortizar are considerably enhanced in lower security star systems with the ability to mount area effect weapons. The Fortizar can be configured using Upwell's Standup brand service and structure modules so as to serve the specific needs of the structure operator. Further adjustment of the hardware of the Fortizar can be achieved by installed Standup L-Set rigs to optimize the specific role of the citadel.",
            "enabled_sections": 0,
            "eve_graphic_id": null,
            "eve_group_id": 1657,
            "eve_market_group_id": null,
            "icon_id": null,
            "id": 47516,
            "mass": 10000000000.0,
            "name": "'Prometheus' Fortizar",
            "packaged_volume": 80000.0,
            "portion_size": 1,
            "published": true,
            "radius": 85000.0,
            "volume": 80000.0
        },
        {
            "capacity": 0.0,
            "description": "",
            "enabled_sections": 0,
            "eve_graphic_id": null,
            "eve_group_id": 2015,
            "eve_market_group_id": null,
            "icon_id": null,
            "id": 49600,
            "mass": 500.0,
            "name": "Upwell Monument 1M",
            "packaged_volume": 4000.0,
            "portion_size": 1,
            "published": false,
            "radius": 1.0,
            "volume": 4000.0
        },
        {
            "capacity": 0.0,
            "description": "",
            "enabled_sections": 0,
            "eve_graphic_id": null,
            "eve_group_id": 2015,
            "eve_market_group_id": null,
            "icon_id": null,
            "id": 49601,
            "mass": 500.0,
            "name": "Upwell Monument 1F",
            "packaged_volume": 4000.0,
            "portion_size": 1,
            "published": false,
            "radius": 1.0,
            "volume": 4000.0
        },
        {
            "capacity": 0.0,
            "description": "",
            "enabled_sections": 0,
            "eve_graphic_id": null,
            "eve_group_id": 1924,
            "eve_market_group_id": null,
            "icon_id": null,
            "id": 71116,
            "mass": 3000000000.0,
            "name": "Amarr Empire Stronghold",
            "packaged_volume": 8000.0,
            "portion_size": 1,
            "published": false,
            "radius": 50000.0,
            "volume": 8000.0
        },
        {
            "capacity": 0.0,
            "description": "",
            "enabled_sections": 0,
            "eve_graphic_id": null,
            "eve_group_id": 1924,
            "eve_market_group_id": null,
            "icon_id": null,
            "id": 71117,
            "mass": 3000000000.0,
            "name": "Caldari State Stronghold",
            "packaged_volume": 8000.0,
            "portion_size": 1,
            "published": false,
            "radius": 50000.0,
            "volume": 8000.0
        },
        {
            "capacity": 0.0,
            "description": "",
            "enabled_sections": 0,
            "eve_graphic_id": null,
            "eve_group_id": 1924,
            "eve_market_group_id": null,
            "icon_id": null,
            "id": 71118,
            "mass": 3000000000.0,
            "name": "Gallente Federation Stronghold",
            "packaged_volume": 8000.0,
            "portion_size": 1,
            "published": false,
            "radius": 50000.0,
            "volume": 8000.0
        },
        {
            "capacity": 0.0,
            "description": "",
            "enabled_sections": 0,
            "eve_graphic_id": null,
            "eve_group_id": 1924,
            "eve_market_group_id": null,
            "icon_id": null,
            "id": 71119,
            "mass": 3000000000.0,
            "name": "Minmatar Republic Stronghold",
            "packaged_volume": 8000.0,
            "portion_size": 1,
            "published": false,
            "radius": 50000.0,
            "volume": 8000.0
        },
        {
            "capacity": 0.0,
            "description": "This Angel Cartel Forward Operating Base is being operated by the insurgency taskforce of the Malakim Zealots. Using a unique mix of Deathless Circle technology discovered, stolen, or otherwise acquired by fair means or foul, this FOB serves as the center of the Angel insurgency and the command center from which the Malakim Zealots orchestrate the spreading corruption and their \"salvage\" operations across nearby space.\r\n\r\nHeavily defended by the Angel Cartel and an interlocking network of shields and disruptive technologies, this FOB will only become vulnerable to attack when local anti-pirate forces are able to bring enough star systems under counter-insurgency suppression.",
            "enabled_sections": 0,
            "eve_graphic_id": null,
            "eve_group_id": 4644,
            "eve_market_group_id": null,
            "icon_id": null,
            "id": 78260,
            "mass": 3000000000.0,
            "name": "Angel Cartel FOB",
            "packaged_volume": 8000.0,
            "portion_size": 1,
            "published": false,
            "radius": 50000.0,
            "volume": 8000.0
        },
        {
            "capacity": 0.0,
            "description": "This Guristas Pirates Forward Operating Base is being operated by the insurgency taskforce of the Commando Guri. Using a unique mix of Deathless Circle technology discovered, stolen, or otherwise acquired by fair means or foul, this FOB serves as the center of the Guristas insurgency and the command center from which the Commando Guri orchestrate the spreading corruption and their \"salvage\" operations across nearby space.\r\n\r\nHeavily defended by Guristas Pirates and an interlocking network of shields and disruptive technologies, this FOB will only become vulnerable to attack when local anti-pirate forces are able to bring enough star systems under counter-insurgency suppression.",
            "enabled_sections": 0,
            "eve_graphic_id": null,
            "eve_group_id": 4644,
            "eve_market_group_id": null,
            "icon_id": null,
            "id": 79172,
            "mass": 3000000000.0,
            "name": "Guristas Pirates FOB",
            "packaged_volume": 8000.0,
            "portion_size": 1,
            "published": false,
            "radius": 50000.0,
            "volume": 8000.0
        },
        {
            "capacity": 35000.0,
            "description": "The Orbital Skyhook stands as the Upwell Consortium's pinnacle achievement in advancing colonization and space infrastructure technology. Harnessing cutting-edge materials science and technology from member corporations and innovative R&D programs, Upwell has brought these marvels to life in record time. These skyhooks exhibit significantly heightened efficiency in construction, maintenance, and the transportation of resources from surface to orbit. When established, they streamline the transfer of power, workforce, and reagents from planets to orbital facilities and beyond.\r\n\r\nTailored variants cater to the diverse environments of different planets, featuring specialized features such as long-range tractor beams for workforces on temperate, ocean, and barren planets, packaging facilities for ice and lava planets' reagents, and power collection platforms for gas, plasma, and storm planets.\r\n\r\nHowever, managers are advised that such structures may inadvertently attract unsavory elements, such as pirates, due to their strategic importance and valuable cargo.",
            "enabled_sections": 0,
            "eve_graphic_id": null,
            "eve_group_id": 4736,
            "eve_market_group_id": null,
            "icon_id": null,
            "id": 81080,
            "mass": 5000000000.0,
            "name": "Orbital Skyhook",
            "packaged_volume": 8000.0,
            "portion_size": 1,
            "published": true,
            "radius": 45000.0,
            "volume": 8000.0
        },
        {
            "capacity": 0.0,
            "description": "The Upwell Consortium, renowned for its successful Athanor and Tatara class refineries, recognized the mounting challenges faced by its customers with moon-mining operations. In response, they unveiled the Metenox moon drill, a hands-off deployable employing traditional surface-grazing techniques. \r\n \r\nAlthough these autonomous facilities are less efficient at material extraction than refineries and are more vulnerable to raids due to lighter plating, short reinforcement windows, and also garner high power demands requiring colony reagents, the Consortium insists that their autonomous functionality is a worthy trade-off.\r\n \r\nPlease note: The Metenox moon drill must be positioned within 250km of an eligible moon mining site and exclusively in systems rated 0.4 security or lower.",
            "enabled_sections": 0,
            "eve_graphic_id": null,
            "eve_group_id": 4744,
            "eve_market_group_id": null,
            "icon_id": 26065,
            "id": 81826,
            "mass": 3000000000.0,
            "name": "Metenox Moon Drill",
            "packaged_volume": 6000.0,
            "portion_size": 1,
            "published": true,
            "radius": 25000.0,
            "volume": 6000.0
        }
    ]
}
